<svg xmlns="http://www.w3.org/2000/svg" width="32" height="32" viewBox="0 0 32 32">
    <path fill="none" fill-rule="evenodd" stroke="#265C70" stroke-linecap="round" stroke-linejoin="round" stroke-width="1.2" d="M16 16c7.18 0 13-2.462 13-5.5S23.18 5 16 5 3 7.462 3 10.5 8.82 16 16 16zM3 10.955V21.5C3 24.538 8.82 27 16 27s13-2.462 13-5.5v-11m-13 3.056c5.222 0 9.455-1.368 9.455-3.056S21.222 7.444 16 7.444 6.545 8.812 6.545 10.5s4.233 3.056 9.455 3.056zM21.079 19l-5.812 3.741a4 4 0 0 1-4.342-.297c-.788-.676-1.182-1.157-1.182-1.444 0-.43 1.182-1.444 1.182-1.444a4 4 0 0 1 4.342-.297L21.08 23v-4z"/>
</svg>
