<svg xmlns="http://www.w3.org/2000/svg" width="32" height="32" viewBox="0 0 32 32">
    <path fill="none" fill-rule="evenodd" stroke="#265C70" stroke-linecap="round" stroke-linejoin="round" stroke-width="1.2" d="M7.892 12C4.086 12 1 9.985 1 7.5S4.086 3 7.892 3c3.806 0 6.892 2.015 6.892 4.5S11.698 12 7.892 12zm1.057 8.946c-.345.035-.698.054-1.057.054C4.086 21 1 18.924 1 16.364v-8.89m13.784 4.38V7.09v4.762zM7.892 9.544c1.791 0 3.243-.915 3.243-2.045S9.683 5.455 7.892 5.455 4.649 6.37 4.649 7.5 6.1 9.545 7.892 9.545zM24.108 12c-3.806 0-6.892-2.015-6.892-4.5S20.302 3 24.108 3C27.914 3 31 5.015 31 7.5S27.914 12 24.108 12zm-6.892-4.525v4.46-4.46zM31 7.09v9.273C31 18.924 27.914 21 24.108 21c-.35 0-.692-.017-1.028-.051m1.028-11.404c1.791 0 3.243-.915 3.243-2.045S25.9 5.455 24.108 5.455s-3.243.915-3.243 2.045 1.452 2.045 3.243 2.045zM16 21c-3.806 0-6.892-2.015-6.892-4.5S12.194 12 16 12c3.806 0 6.892 2.015 6.892 4.5S19.806 21 16 21zm6.892-4.91v9.274C22.892 27.924 19.806 30 16 30c-3.806 0-6.892-2.076-6.892-4.636v-8.89M16 18.546c1.791 0 3.243-.915 3.243-2.045S17.791 14.455 16 14.455s-3.243.915-3.243 2.045 1.452 2.045 3.243 2.045z"/>
</svg>
