<svg xmlns="http://www.w3.org/2000/svg" width="50" height="50" viewBox="0 0 50 50">
    <g fill="none" fill-rule="evenodd" stroke="#728184" stroke-linecap="round" stroke-linejoin="round" stroke-width="1.2">
        <path d="M44.394 29.2C42.654 37.644 35.08 44 26 44M7.606 21.8C9.346 13.356 16.92 7 26 7M11.41 18.861L7.605 21.8 6 17.206m34.59 14.933l3.804-2.939L46 33.794M31.63 19.025v2.602c0 1.022-2.52 1.85-5.63 1.85s-5.63-.828-5.63-1.85v-.925m11.26 2.023v1.677c0 1.022-2.52 1.85-5.63 1.85s-5.63-.828-5.63-1.85v-.925M31.63 25.5v1.677c0 1.022-2.52 1.85-5.63 1.85s-5.63-.828-5.63-1.85v-.925m11.26 2.023v1.677c0 1.022-2.52 1.85-5.63 1.85s-5.63-.828-5.63-1.85v-.925m11.26 2.023v1.677c0 1.022-2.52 1.85-5.63 1.85s-5.63-.828-5.63-1.85v-.925M26 20.875c-3.11 0-5.63-.828-5.63-1.85 0-1.022 2.52-1.85 5.63-1.85s5.63.828 5.63 1.85c0 1.022-2.52 1.85-5.63 1.85zM26 44c-9.08 0-16.654-6.356-18.394-14.8M26 7c9.08 0 16.654 6.356 18.394 14.8"/>
    </g>
</svg>
