<svg xmlns="http://www.w3.org/2000/svg" width="33" height="12" viewBox="0 0 33 12">
    <text fill="#778082" fill-rule="evenodd" font-family="OpenSans, Open Sans" font-size="13" transform="translate(-14 -7)">
        <tspan x="13.128" y="17">1,5 кг</tspan>
    </text>
</svg>
