<svg xmlns="http://www.w3.org/2000/svg" width="18" height="10" viewBox="0 0 18 10">
    <text fill="#778082" fill-rule="evenodd" font-family="OpenSans, Open Sans" font-size="13" transform="translate(-28 -7)">
        <tspan x="28" y="17">2 ч </tspan>
    </text>
</svg>
