<svg xmlns="http://www.w3.org/2000/svg" width="44" height="11" viewBox="0 0 44 11">
    <text fill="#778082" fill-rule="evenodd" font-family="OpenSans, Open Sans" font-size="13" transform="translate(0 -4)">
        <tspan x="0" y="14">25 мин</tspan>
    </text>
</svg>
