<svg xmlns="http://www.w3.org/2000/svg" width="32" height="32" viewBox="0 0 32 32">
    <path fill="none" fill-rule="evenodd" stroke="#728184" stroke-linecap="round" stroke-linejoin="round" stroke-width="1.2" d="M2 14.656h21.633V26H2V14.656zM21.857 5L31 24.094l-1.91 1.762-9.847-20.563L21.857 5zm-4.272 12.897h6.048m0 4.862h-5.811m-9.836 0H2m0-4.862h5.692m5.125 6.482c3.216 0 5.824-1.814 5.824-4.051 0-2.238-2.608-4.052-5.824-4.052-3.217 0-5.825 1.814-5.825 4.052 0 2.237 2.608 4.051 5.825 4.051zm7.55-9.834a1.921 1.921 0 0 1-1.934-1.909c0-1.054.866-1.909 1.934-1.909 1.067 0 1.933.855 1.933 1.91 0 1.054-.866 1.908-1.933 1.908zm-3.867 0a1.921 1.921 0 0 1-1.933-1.909c0-1.054.865-1.909 1.933-1.909s1.933.855 1.933 1.91c0 1.054-.865 1.908-1.933 1.908zm-3.867 0a1.921 1.921 0 0 1-1.933-1.909c0-1.054.866-1.909 1.933-1.909 1.068 0 1.934.855 1.934 1.91 0 1.054-.866 1.908-1.934 1.908zm-3.866 0a1.921 1.921 0 0 1-1.934-1.909c0-1.054.866-1.909 1.934-1.909 1.067 0 1.933.855 1.933 1.91 0 1.054-.866 1.908-1.933 1.908zm-3.867 0a1.921 1.921 0 0 1-1.933-1.909c0-1.054.865-1.909 1.933-1.909s1.933.855 1.933 1.91c0 1.054-.865 1.908-1.933 1.908zm13.05-3.818a1.921 1.921 0 0 1-1.933-1.909c0-1.054.865-1.909 1.933-1.909s1.933.855 1.933 1.91c0 1.054-.865 1.908-1.933 1.908zm-3.867 0a1.921 1.921 0 0 1-1.933-1.909c0-1.054.866-1.909 1.933-1.909 1.068 0 1.934.855 1.934 1.91 0 1.054-.866 1.908-1.934 1.908zm-3.866 0a1.921 1.921 0 0 1-1.934-1.909c0-1.054.866-1.909 1.934-1.909 1.067 0 1.933.855 1.933 1.91 0 1.054-.866 1.908-1.933 1.908zm-3.867 0a1.921 1.921 0 0 1-1.933-1.909c0-1.054.865-1.909 1.933-1.909s1.933.855 1.933 1.91c0 1.054-.865 1.908-1.933 1.908z"/>
</svg>
