<?xml version="1.0" encoding="UTF-8"?>
<svg width="50px" height="68px" viewBox="0 0 50 68" version="1.1" xmlns="http://www.w3.org/2000/svg" xmlns:xlink="http://www.w3.org/1999/xlink">
    <!-- Generator: sketchtool 55.2 (78181) - https://sketchapp.com -->
    <title>06B11BF3-72BE-4F8D-A4F5-2E387EB33C17</title>
    <desc>Created with sketchtool.</desc>
    <g id="Page-3" stroke="none" stroke-width="1" fill="none" fill-rule="evenodd">
        <g id="More_contactus-Green" transform="translate(-766.000000, -715.000000)">
            <g id="tag" transform="translate(766.000000, 715.000000)">
                <path d="M25,0 C38.8071187,0 50,11.0969172 50,24.7856584 C50,42.5713964 26.9215487,68 25,68 C23.0784513,68 0,42.5713964 0,24.7856584 C0,11.0969172 11.1928813,0 25,0 Z" id="Rectangle" fill="#265184"></path>
                <circle id="Oval" fill="#FFFFFF" cx="25" cy="24" r="20"></circle>
                <path d="M38.4978241,21.9649058 L38.6416907,18.7760111 C38.0012081,19.5119457 37.3463637,20.0423914 36.6771577,20.3673482 C36.0079517,20.692305 35.2702517,20.9101716 34.4640579,21.020948 C37.6714093,22.7175655 38.6975552,24.7962221 37.5424955,27.2569178 C35.809906,30.9479614 32.3917762,28.0363063 27.6171624,30.1789778 C24.4340865,31.6074254 22.914981,33.8958653 23.0598457,37.0442973 C25.1233048,36.8634779 26.7487524,36.5539485 27.9361886,36.1157091 C29.9785253,35.3619572 32.5626412,34.5031992 34.2130881,32.8152803 C36.7941155,30.1756529 37.7172358,28.7392051 38.3957661,26.6975619 C38.8481197,25.3364665 38.6757055,23.972652 37.8785236,22.6061185 C40.5192893,25.0244035 40.4513633,28.1014339 37.6747455,31.8372097 C33.5098189,37.4408734 27.1786827,39.341464 20.4199509,40.2156827 C20.4199509,40.2156827 19.7565657,32.1131185 24.9908645,29.1119379 C30.2251633,26.1107574 34.7126505,28.6063035 36.2564439,26.563341 C36.9401356,25.6585849 34.9843506,23.6676106 30.3890889,20.5904182 C32.9193405,20.130925 34.7896735,19.5261227 36.000088,18.7760111 C37.2105025,18.0258995 38.8771398,16.5332802 41,14.298153 C40.6382833,16.206978 40.3165641,17.6156732 40.0348425,18.5242386 C39.7531209,19.432804 39.2407815,20.5796931 38.4978241,21.9649058 Z M26.0099883,35.1789375 C25.480091,35.1789375 25.0505243,34.7501007 25.0505243,34.2211037 C25.0505243,33.6921067 25.480091,33.2632699 26.0099883,33.2632699 C26.5398856,33.2632699 26.9694522,33.6921067 26.9694522,34.2211037 C26.9694522,34.7501007 26.5398856,35.1789375 26.0099883,35.1789375 Z M24.5336211,15.0624713 C24.0037238,15.0624713 23.5741571,14.6336345 23.5741571,14.1046375 C23.5741571,13.5756405 24.0037238,13.1468037 24.5336211,13.1468037 C25.0635184,13.1468037 25.493085,13.5756405 25.493085,14.1046375 C25.493085,14.6336345 25.0635184,15.0624713 24.5336211,15.0624713 Z M31.8073203,26.9930346 C30.4051067,26.7517136 28.924096,26.8396747 27.3642881,27.2569178 C25.8044802,27.674161 24.7035807,28.2768518 24.0615896,29.0649904 L20.7861663,27.1220611 C22.3176743,26.2129992 24.0330801,25.7473506 25.9323837,25.7251151 C27.8316873,25.7028796 29.7899995,26.1255195 31.8073203,26.9930346 Z M34.1902985,37.0612577 C33.5285104,37.5170304 32.9704646,38.0009903 32.5161612,38.5131374 C32.0618578,39.0252846 31.4552746,39.8542388 30.6964118,41 C28.7977313,39.7670079 27.848391,39.1505118 27.848391,39.1505118 C27.848391,39.1505118 28.7436813,39.02926 30.2462796,38.373152 C30.6426853,38.2000619 31.3069461,37.8201211 32.2390621,37.2333298 L34.1902985,37.0612577 Z M39.1593631,32.6015685 C38.9059683,32.9433843 38.7263897,33.2624076 38.6206273,33.5586384 C38.5148649,33.8548691 38.466254,34.1749839 38.4747946,34.5189826 C38.2005878,34.5016301 37.9334801,34.4247822 37.6734716,34.288439 C37.4134631,34.1520958 37.1843064,33.9687127 36.9860016,33.7382897 C37.0287511,33.3922747 37.2579078,33.1105921 37.6734716,32.8932421 C38.0890354,32.6758921 38.5843326,32.5786676 39.1593631,32.6015685 Z M11.9049098,27.6241479 C12.1607615,28.2838793 12.3146255,28.7641602 12.3665018,29.0649904 C12.4183781,29.3658206 12.4183781,29.8397916 12.3665018,30.4869034 C12.5700043,30.0238425 12.8334944,29.6788846 13.1569722,29.4520296 C13.4804499,29.2251746 14.0579238,28.9803643 14.889394,28.7175987 C12.4567453,25.87908 11.7031633,23.7554393 12.6286478,22.3466764 C14.0168746,20.2335321 21.4627637,21.1567975 25.0505243,18.7760111 C27.4423648,17.1888202 29.0141865,14.9436329 29.7659896,12.0404492 C28.3010053,11.5616366 26.7092969,11.3933022 24.9908645,11.5354461 C23.2724321,11.6775899 21.870866,11.966939 20.7861663,12.4034932 C20.4062622,13.8180957 20.2841904,14.8283391 20.4199509,15.4342233 C20.5557115,16.0401075 21.009263,16.8187822 21.7806056,17.7702475 C20.3054399,16.75111 19.3631238,15.8617736 18.9536571,15.1022381 C18.5441905,14.3427026 18.7858825,13.602316 19.6787332,12.8810784 C16.7673248,13.9245904 14.6713442,15.5543135 13.3907913,17.7702475 C12.1102385,19.9861815 11.4418237,22.7368789 11.385547,26.0223397 C10.8400317,24.1388153 10.7496672,22.2092127 11.1144535,20.2335321 C11.7576606,16.7499261 14.6832535,13.1403576 17.8491062,11.5354461 C23.9656478,8.43469907 27.5873539,8.96690095 32.0190752,10.5965631 C32.1760008,10.6622905 32.1044073,11.8243825 31.4162773,13.2386586 C31.0174828,14.0582793 29.8261175,16.4167487 28.5798371,17.7702475 C27.3335567,19.1237463 24.8774429,20.90574 22.2534947,21.5281624 C14.9989293,23.249006 14.0168746,22.6486483 14.0168746,23.9558073 C14.0168746,26.9467878 15.9555032,28.6977499 19.8327605,29.2086936 C17.1011487,30.0568713 15.1625201,30.8428807 14.0168746,31.5667217 C12.8712291,32.2905627 11.5322709,33.5753961 10,35.4212219 C10.5280646,33.6652588 10.8995491,32.3474598 11.1144535,31.4678248 C11.3293579,30.5881899 11.5928433,29.3069642 11.9049098,27.6241479 Z M20.7861663,22.6061185 C20.9141334,22.601659 21.8524457,22.6105781 23.4164295,22.0691387 C23.7982878,21.9369422 24.3901249,21.6403181 25.1919407,21.1792664 C24.6354059,22.7326661 24.2266416,23.6872605 23.9656478,24.0430495 C23.704654,24.3988386 23.2913837,24.5767331 22.7258368,24.5767331 C22.1097626,24.3416223 21.5820685,24.1829935 21.1427544,24.1008466 C20.7034404,24.0186998 19.9965454,23.9994341 19.0220694,24.0430495 C19.4435979,23.8020973 19.72723,23.6181863 19.8729657,23.4913167 C20.5208117,22.9273369 20.6581993,22.6105781 20.7861663,22.6061185 Z M12.4117866,15.8905762 C12.9038817,13.7815098 13.5211019,12.1249691 14.2634471,10.9209543 C15.0057923,9.7169394 16.2157579,8.40995464 17.893344,7 C17.9232293,7.77029364 18.0569055,8.2884256 18.2943725,8.55439589 C18.5318396,8.82036618 19.0230666,9.00214471 19.7680537,9.09973146 C17.8809081,10.1350145 16.4484832,11.1152538 15.4707789,12.0404492 C14.4930747,12.9656446 13.4734106,14.2490203 12.4117866,15.8905762 Z" id="morelogo" fill="#265184"></path>
            </g>
        </g>
    </g>
</svg>