<svg xmlns="http://www.w3.org/2000/svg" width="50" height="50" viewBox="0 0 50 50">
    <path fill="none" fill-rule="evenodd" stroke="#728184" stroke-linecap="round" stroke-linejoin="round" stroke-width="1.2" d="M31.035 19.411h6a.87.87 0 0 1 .682.329L43 26.416v8.658c0 .947-.776 1.715-1.733 1.715h-2.443m-7.406 0h-8.114m-7.636 0h-2.833a1.724 1.724 0 0 1-1.733-1.715v-5.258c0-.948.776-1.716 1.733-1.716h18.2V13.716c0-.948-.776-1.716-1.734-1.716H12.835c-.957 0-1.733.768-1.733 1.716v2.265m2.486 2.074H6m8.988 3.073H7.4m6.188 3.432H9.794M19.532 40c1.915 0 3.466-1.536 3.466-3.431s-1.551-3.431-3.466-3.431c-1.914 0-3.466 1.536-3.466 3.43 0 1.896 1.552 3.432 3.466 3.432zm15.599 0c1.915 0 3.466-1.536 3.466-3.431s-1.551-3.431-3.466-3.431c-1.914 0-3.466 1.536-3.466 3.43 0 1.896 1.552 3.432 3.466 3.432zm4.305-9.3h3.186m-7.064-4.314h7.064"/>
</svg>
