<svg xmlns="http://www.w3.org/2000/svg" width="50" height="50" viewBox="0 0 50 50">
    <path fill="none" fill-rule="evenodd" stroke="#728184" stroke-linecap="round" stroke-linejoin="round" stroke-width="1.2" d="M25 5c6.526 0 11.817 5.417 11.817 12.1 0 6.682-9.92 19.095-11.817 19.095-1.897 0-11.817-12.413-11.817-19.096C13.183 10.417 18.473 5 25 5zm7.77 27.193h3.095c.371 0 .719.188.929.502l5.01 7.502a1.17 1.17 0 0 1-.294 1.602 1.107 1.107 0 0 1-.636.201H9.125C8.504 42 8 41.484 8 40.848c0-.232.068-.46.196-.65l5.01-7.503c.21-.314.558-.502.93-.502h2.453m8.41-22.008c3.109 0 5.628 2.58 5.628 5.762 0 3.182-2.52 5.762-5.627 5.762-3.108 0-5.627-2.58-5.627-5.762 0-3.182 2.52-5.762 5.627-5.762zM21.625 37.55c.284 0 1.688 1.356 3.376 1.356s3.051-1.356 3.376-1.356"/>
</svg>
