<svg xmlns="http://www.w3.org/2000/svg" width="40" height="40" viewBox="0 0 40 40">
    <path fill="none" fill-rule="evenodd" stroke="#FFF" stroke-linecap="round" stroke-linejoin="round" stroke-width="1.4" d="M25.343 25.288c-3.053 3.04-8.002 3.041-11.055.002a7.761 7.761 0 0 1 .003-11.009c3.053-3.04 8.002-3.041 11.054-.002a7.761 7.761 0 0 1-.002 11.009zm.088.053L30 30l-4.569-4.659z"/>
</svg>
