<svg xmlns="http://www.w3.org/2000/svg" width="30" height="30" viewBox="0 0 30 30">
    <path fill="none" fill-rule="evenodd" stroke="#FFF" stroke-linecap="round" stroke-linejoin="round" stroke-width="1.4" d="M24.97 23.126H7.43L3.8 5.646.944 4.41m5.918 4.207H28l-2.45 11.042H6.862m4.84-3.671h8.893m-10.204-3.67h11.514M11.659 29c1.085 0 1.965-.895 1.965-1.998 0-1.104-.88-1.999-1.965-1.999-1.086 0-1.966.895-1.966 1.999 0 1.103.88 1.998 1.966 1.998zm8.92 0c1.086 0 1.966-.895 1.966-1.998 0-1.104-.88-1.999-1.965-1.999-1.086 0-1.966.895-1.966 1.999 0 1.103.88 1.998 1.966 1.998z"/>
</svg>
