<svg xmlns="http://www.w3.org/2000/svg" width="32" height="32" viewBox="0 0 32 32">
    <path fill="none" fill-rule="evenodd" stroke="#728184" stroke-linecap="round" stroke-linejoin="round" stroke-width="1.2" d="M7 8h18a2 2 0 0 1 2 2v12a2 2 0 0 1-2 2H7a2 2 0 0 1-2-2V10a2 2 0 0 1 2-2zm-2 2.778l9.777 7.555a2 2 0 0 0 2.446 0L27 10.778"/>
</svg>
