<?xml version="1.0" encoding="UTF-8"?>
<svg width="40px" height="40px" viewBox="0 0 40 40" version="1.1" xmlns="http://www.w3.org/2000/svg" xmlns:xlink="http://www.w3.org/1999/xlink">
    <!-- Generator: sketchtool 55.2 (78181) - https://sketchapp.com -->
    <title>93A5CF16-7E89-4D1E-A8CA-6D71A25409BB</title>
    <desc>Created with sketchtool.</desc>
    <g id="Page-3" stroke="none" stroke-width="1" fill="none" fill-rule="evenodd" stroke-linecap="round" stroke-linejoin="round">
        <g id="ms_Contactus" transform="translate(-486.000000, -1069.000000)" stroke="#728184" stroke-width="1.2">
            <g id="Group-10-Copy-2" transform="translate(486.000000, 1069.000000)">
                <g id="Group-16">
                    <path d="M22,23 L30,23 C30.5522847,23 31,23.4477153 31,24 L31,28 C31,28.5522847 30.5522847,29 30,29 L22,29 C21.4477153,29 21,28.5522847 21,28 L21,24 C21,23.4477153 21.4477153,23 22,23 Z M11.5,15 C11.5,17.209139 9.59721019,19 7.25,19 C4.90278981,19 3,17.209139 3,15 L3,15 M20,15 C20,17.209139 18.0972102,19 15.75,19 C13.4027898,19 11.5,17.209139 11.5,15 L11.5,15 M28.5,15 C28.5,17.209139 26.5972102,19 24.25,19 C21.9027898,19 20,17.209139 20,15 L20,15 M37,15 C37,17.209139 35.0972102,19 32.75,19 C30.4027898,19 28.5,17.209139 28.5,15 L28.5,15 M34,19 L34,36 L6,36 L6,19 L6,19 M18,36 L18,24 C18,23.4477153 17.5522847,23 17,23 L12,23 C11.4477153,23 11,23.4477153 11,24 L11,36 M37,15 L32,6 L8,6 L3,15 L37,15 Z" id="Combined-Shape"></path>
                </g>
            </g>
        </g>
    </g>
</svg>